redux_v.vcd
$date
	Sun Apr 26 17:23:46 2026
$end
$version
	Icarus Verilog
$end
$timescale
	1ps
$end
$scope module redux_v_TB $end
$var reg 1 ! clk $end
$var reg 2 " program_selector [1:0] $end
$scope module cpu $end
$var wire 2 # addrRb [1:0] $end
$var wire 1 ! clk $end
$var wire 1 $ is_type_i $end
$var wire 8 % writeData [7:0] $end
$var wire 8 & plusImm [7:0] $end
$var wire 8 ' plus1 [7:0] $end
$var wire 8 ( outRb [7:0] $end
$var wire 8 ) outRa [7:0] $end
$var wire 4 * opcode [3:0] $end
$var wire 1 + nextpc_zero_in $end
$var wire 8 , nextpc_rbValue_in [7:0] $end
$var wire 1 - nextpc_increment_in $end
$var wire 8 . next_pc [7:0] $end
$var wire 8 / memDataOut [7:0] $end
$var wire 8 0 instruction [7:0] $end
$var wire 2 1 inst_rb [1:0] $end
$var wire 2 2 inst_ra [1:0] $end
$var wire 8 3 imm_ext [7:0] $end
$var wire 4 4 imm [3:0] $end
$var wire 8 5 current_pc [7:0] $end
$var wire 1 6 ctrl_ulaSrc $end
$var wire 4 7 ctrl_ulaOper [3:0] $end
$var wire 1 8 ctrl_regWrite $end
$var wire 1 9 ctrl_memWrite $end
$var wire 1 : ctrl_memToReg $end
$var wire 1 ; ctrl_invBranch $end
$var wire 1 < ctrl_increment $end
$var wire 1 = ctrl_destReg $end
$var wire 1 > ctrl_branch $end
$var wire 1 ? aluZero $end
$var wire 8 @ aluResult [7:0] $end
$var wire 8 A aluOperandB [7:0] $end
$var wire 1 B aluCarry $end
$var wire 2 C addrW [1:0] $end
$var wire 2 D addrRa [1:0] $end
$scope module alu_inst $end
$var wire 8 E Rb [7:0] $end
$var wire 8 F w_xor [7:0] $end
$var wire 8 G w_shift_srr [7:0] $end
$var wire 8 H w_shift_slr [7:0] $end
$var wire 8 I w_or [7:0] $end
$var wire 8 J w_not [7:0] $end
$var wire 8 K w_mul [7:0] $end
$var wire 8 L w_and [7:0] $end
$var wire 8 M w_addsub [7:0] $end
$var wire 4 N ulaOper [3:0] $end
$var wire 1 O op_sub $end
$var wire 1 ? Zero $end
$var wire 8 P Ra [7:0] $end
$var wire 1 B Carry $end
$var reg 8 Q Res [7:0] $end
$scope module aritmetica $end
$var wire 8 R Rb [7:0] $end
$var wire 1 O sub $end
$var wire 9 S temp_res [8:0] $end
$var wire 8 T Res [7:0] $end
$var wire 8 U Ra [7:0] $end
$var wire 1 B Carry $end
$upscope $end
$scope module logica $end
$var wire 8 V Rb [7:0] $end
$var wire 8 W res_and [7:0] $end
$var wire 8 X res_not [7:0] $end
$var wire 8 Y res_or [7:0] $end
$var wire 8 Z res_xor [7:0] $end
$var wire 8 [ Ra [7:0] $end
$upscope $end
$scope module multiplicador $end
$var wire 8 \ Rb [7:0] $end
$var wire 8 ] Res [7:0] $end
$var wire 8 ^ Ra [7:0] $end
$upscope $end
$scope module shift $end
$var wire 8 _ Rb [7:0] $end
$var wire 8 ` res_srr [7:0] $end
$var wire 8 a res_slr [7:0] $end
$var wire 8 b Ra [7:0] $end
$upscope $end
$scope module zero_det $end
$var wire 8 c Res [7:0] $end
$var wire 1 ? Zero $end
$upscope $end
$upscope $end
$scope module ctrl_inst $end
$var wire 4 d opcode [3:0] $end
$var reg 1 > branch $end
$var reg 1 = destReg $end
$var reg 1 < increment $end
$var reg 1 ; invBranch $end
$var reg 1 : memToReg $end
$var reg 1 9 memWrite $end
$var reg 1 8 regWrite $end
$var reg 4 e ulaOper [3:0] $end
$var reg 1 6 ulaSrc $end
$upscope $end
$scope module npc_inst $end
$var wire 1 > branch $end
$var wire 1 f branchout $end
$var wire 1 - increment $end
$var wire 1 ; invBranch $end
$var wire 8 g plus1 [7:0] $end
$var wire 8 h plusImm [7:0] $end
$var wire 8 i rbValue [7:0] $end
$var wire 1 + zero $end
$var wire 8 j out [7:0] $end
$var wire 1 k branchcondition $end
$var wire 8 l base [7:0] $end
$upscope $end
$scope module pc_inst $end
$var wire 1 ! clk $end
$var wire 8 m next_pc [7:0] $end
$var wire 1 n rst $end
$var reg 8 o current_pc [7:0] $end
$upscope $end
$scope module ram_inst $end
$var wire 1 ! clk $end
$var wire 8 p dado_leitura [7:0] $end
$var wire 1 9 we $end
$var wire 8 q endereco [7:0] $end
$var wire 8 r dado_escrita [7:0] $end
$var integer 32 s i [31:0] $end
$upscope $end
$scope module regsys_inst $end
$var wire 2 t addrRa [1:0] $end
$var wire 2 u addrRb [1:0] $end
$var wire 2 v addrW [1:0] $end
$var wire 1 ! clk $end
$var wire 8 w outRa [7:0] $end
$var wire 8 x outRb [7:0] $end
$var wire 1 8 we $end
$var wire 8 y writeData [7:0] $end
$var integer 32 z i [31:0] $end
$upscope $end
$scope module rom_inst $end
$var wire 8 { pc [7:0] $end
$var reg 8 | instrucao [7:0] $end
$var integer 32 } i [31:0] $end
$upscope $end
$upscope $end
$upscope $end
$enddefinitions $end
$comment Show the parameter values. $end
$dumpall
$end
#0
$dumpvars
b100000000 }
b1000001 |
b1000000 {
b100 z
b1 y
b0 x
b0 w
b0 v
b1 u
b0 t
b100000000 s
b0 r
b0 q
b0 p
b1000000 o
0n
b1000001 m
b1000001 l
1k
b1000001 j
b0 i
b1000001 h
b1000001 g
0f
b0 e
b100 d
b1 c
b0 b
b0 a
b0 `
b1 _
b0 ^
b0 ]
b1 \
b0 [
b1 Z
b1 Y
b11111110 X
b0 W
b1 V
b0 U
b1 T
b1 S
b1 R
b1 Q
b0 P
0O
b0 N
b1 M
b0 L
b0 K
b11111110 J
b1 I
b0 H
b0 G
b1 F
b1 E
b0 D
b0 C
0B
b1 A
b1 @
0?
0>
0=
0<
0;
0:
09
18
b0 7
16
b1000000 5
b1 4
b1 3
b0 2
b1 1
b1000001 0
b0 /
b1000001 .
1-
b0 ,
1+
b100 *
b0 )
b0 (
b1000001 '
b1000001 &
b1 %
1$
b1 #
b10 "
0!
$end
#5000
b1 D
b1 t
b1 C
b1 v
b1 %
b1 y
0$
b1 @
b1 Q
b1 c
b101 3
1<
18
16
b1 M
b1 T
b101 4
b1 2
b101 *
b101 d
b1000010 .
b1000010 j
b1000010 m
b1 S
b1010101 0
b1010101 |
b1000010 l
b1 F
b1 Z
b0 L
b0 W
1k
b1000110 &
b1000110 h
b1000010 '
b1000010 g
b1000001 5
b1000001 o
b1000001 {
b0 H
b0 a
b0 K
b0 ]
1+
b0 )
b0 P
b0 U
b0 [
b0 ^
b0 b
b0 r
b0 w
1!
#10000
0!
#15000
1?
b0 %
b0 y
1O
b0 @
b0 Q
b0 c
b1 7
b1 N
b1 e
18
16
1<
b0 M
b0 T
b110 *
b110 d
b1000011 .
b1000011 j
b1000011 m
b0 S
b1100101 0
b1100101 |
b1000011 l
b0 F
b0 Z
b1 L
b1 W
0k
b1 ,
b1 i
b1000111 &
b1000111 h
b1000011 '
b1000011 g
b1000010 5
b1000010 o
b1000010 {
b10 H
b10 a
b1 K
b1 ]
0+
b1 )
b1 P
b1 U
b1 [
b1 ^
b1 b
b1 r
b1 w
b1 (
b1 q
b1 x
1!
#20000
0!
#25000
0?
b11111110 %
b11111110 y
0O
b11111110 @
b11111110 Q
b11111110 c
b11111000 3
b10 D
b10 t
b10 C
b10 v
b101 7
b101 N
b101 e
18
06
0<
b1 M
b1 T
0B
b1000 4
b0 #
b0 u
b0 1
b10 2
b1000 *
b1000 d
b1000100 .
b1000100 j
b1000100 m
b1 S
b10001000 0
b10001000 |
b1000100 l
b1 F
b1 Z
b0 L
b0 W
1k
b1 ,
b1 i
b111011 &
b111011 h
b1000100 '
b1000100 g
b1000011 5
b1000011 o
b1000011 {
b0 H
b0 a
b0 K
b0 ]
1+
b0 )
b0 P
b0 U
b0 [
b0 ^
b0 b
b0 r
b0 w
b1 (
b1 q
b1 x
1!
#30000
0!
#35000
1?
b0 %
b0 y
b0 @
b0 Q
b0 c
b10 7
b10 N
b10 e
18
b11111111 M
b11111111 T
b1001 *
b1001 d
b1000101 .
b1000101 j
b1000101 m
b11111111 S
b10011000 0
b10011000 |
b1000101 l
b11111111 F
b11111111 Z
b11111111 I
b11111111 Y
0k
b111100 &
b111100 h
b1000101 '
b1000101 g
b1000100 5
b1000100 o
b1000100 {
b1111111 G
b1111111 `
b11111100 H
b11111100 a
b11111110 K
b11111110 ]
0+
b11111110 )
b11111110 P
b11111110 U
b11111110 [
b11111110 ^
b11111110 b
b11111110 r
b11111110 w
1!
#40000
0!
#45000
0?
b1 %
b1 y
b1 @
b1 Q
b1 c
b11 7
b11 N
b11 e
18
b1 M
b1 T
b1010 *
b1010 d
b1000110 .
b1000110 j
b1000110 m
b1 S
b10101000 0
b10101000 |
b1000110 l
b1 F
b1 Z
b1 I
b1 Y
1k
b111101 &
b111101 h
b1000110 '
b1000110 g
b1000101 5
b1000101 o
b1000101 {
b0 G
b0 `
b0 H
b0 a
b0 K
b0 ]
1+
b0 )
b0 P
b0 U
b0 [
b0 ^
b0 b
b0 r
b0 w
1!
#50000
0!
#55000
0?
b11111111 J
b11111111 X
b1 %
b1 y
b0 ,
b0 i
b1 G
b1 `
b0 A
b0 E
b0 R
b0 V
b0 \
b0 _
b1 @
b1 Q
b1 c
b11111001 3
b0 (
b0 q
b0 x
b100 7
b100 N
b100 e
18
b1 M
b1 T
b1001 4
b1 #
b1 u
b1 1
b1011 *
b1011 d
b1000111 .
b1000111 j
b1000111 m
b1 S
b10111001 0
b10111001 |
b1000111 l
b1 F
b1 Z
b0 L
b0 W
0k
b111111 &
b111111 h
b1000111 '
b1000111 g
b1000110 5
b1000110 o
b1000110 {
b1 H
b1 a
b0 K
b0 ]
0+
b1 )
b1 P
b1 U
b1 [
b1 ^
b1 b
b1 r
b1 w
1!
#60000
0!
#65000
b10 %
b10 y
b10 @
b10 Q
b10 c
b10 M
b10 T
b10 S
b1 L
b1 W
b0 F
b0 Z
b11111110 J
b11111110 X
b1 ,
b1 i
b1 K
b1 ]
b10 H
b10 a
b0 G
b0 `
b1 A
b1 E
b1 R
b1 V
b1 \
b1 _
b11111000 3
b1 (
b1 q
b1 x
b0 7
b0 N
b0 e
18
b1000 4
b0 #
b0 u
b0 1
b1100 *
b1100 d
b1001000 .
b1001000 j
b1001000 m
b11001000 0
b11001000 |
b1001000 l
b111111 &
b111111 h
b1001000 '
b1001000 g
b1000111 5
b1000111 o
b1000111 {
1!
#70000
0!
#75000
b1 %
b1 y
1O
b1 @
b1 Q
b1 c
b1 7
b1 N
b1 e
18
b1 M
b1 T
b1101 *
b1101 d
b1001001 .
b1001001 j
b1001001 m
b1 S
b11011000 0
b11011000 |
b1001001 l
b11 F
b11 Z
b11 I
b11 Y
b0 L
b0 W
b1000000 &
b1000000 h
b1001001 '
b1001001 g
b1001000 5
b1001000 o
b1001000 {
b1 G
b1 `
b100 H
b100 a
b10 K
b10 ]
b10 )
b10 P
b10 U
b10 [
b10 ^
b10 b
b10 r
b10 w
1!
#80000
0!
#85000
b10 %
b10 y
0O
b10 @
b10 Q
b10 c
b110 7
b110 N
b110 e
18
b10 M
b10 T
b1110 *
b1110 d
b1001010 .
b1001010 j
b1001010 m
b10 S
b11101000 0
b11101000 |
b1001010 l
b0 F
b0 Z
b1 I
b1 Y
b1 L
b1 W
b1000001 &
b1000001 h
b1001010 '
b1001010 g
b1001001 5
b1001001 o
b1001001 {
b0 G
b0 `
b10 H
b10 a
b1 K
b1 ]
b1 )
b1 P
b1 U
b1 [
b1 ^
b1 b
b1 r
b1 w
1!
#90000
0!
#95000
0?
b111 7
b111 N
b111 e
18
b11 M
b11 T
b1111 *
b1111 d
b1001011 .
b1001011 j
b1001011 m
b1 %
b1 y
b11 S
b11111000 0
b11111000 |
b1001011 l
b1 @
b1 Q
b1 c
b11 F
b11 Z
b11 I
b11 Y
b0 L
b0 W
b1000010 &
b1000010 h
b1001011 '
b1001011 g
b1001010 5
b1001010 o
b1001010 {
b1 G
b1 `
b100 H
b100 a
b10 K
b10 ]
b10 )
b10 P
b10 U
b10 [
b10 ^
b10 b
b10 r
b10 w
1!
#100000
0!
#105000
0?
19
b0 7
b0 N
b0 e
08
b10 M
b10 T
b11 *
b11 d
b1001100 .
b1001100 j
b1001100 m
b10 %
b10 y
b10 S
b111000 0
b111000 |
b1001100 l
b10 @
b10 Q
b10 c
b0 F
b0 Z
b1 I
b1 Y
b1 L
b1 W
b1000011 &
b1000011 h
b1001100 '
b1001100 g
b1001011 5
b1001011 o
b1001011 {
b0 G
b0 `
b10 H
b10 a
b1 K
b1 ]
b1 )
b1 P
b1 U
b1 [
b1 ^
b1 b
b1 r
b1 w
1!
#110000
0!
#115000
b1 @
b1 Q
b1 c
b1 M
b1 T
b1 S
b1 F
b1 Z
b0 L
b0 W
1k
b0 H
b0 a
b0 K
b0 ]
1+
b0 )
b0 P
b0 U
b0 [
b0 ^
b0 b
b0 r
b0 w
b1 %
b1 y
b11111100 3
b11 D
b11 t
b11 C
b11 v
18
1:
09
b1100 4
b11 2
b10 *
b10 d
b1001101 .
b1001101 j
b1001101 m
b101100 0
b101100 |
b1001101 l
b1001000 &
b1001000 h
b1001101 '
b1001101 g
b1001100 5
b1001100 o
b1001100 {
b1 /
b1 p
1!
#120000
0!
#125000
b10 %
b10 y
b10 @
b10 Q
b10 c
b11111000 3
b10 D
b10 t
b10 C
b10 v
1>
08
0:
b10 M
b10 T
b1000 4
b10 2
b0 *
b0 d
b1001110 .
b1001110 j
b1001110 m
b10 S
b1000 0
b1000 |
b1001110 l
b0 F
b0 Z
b1 L
b1 W
0k
b1000101 &
b1000101 h
b1001110 '
b1001110 g
b1001101 5
b1001101 o
b1001101 {
b10 H
b10 a
b1 K
b1 ]
0+
b1 )
b1 P
b1 U
b1 [
b1 ^
b1 b
b1 r
b1 w
1!
#130000
0!
#135000
b1 %
b1 y
b1 @
b1 Q
b1 c
b1 M
b1 T
b1 S
b0 L
b0 W
b1 F
b1 Z
b11111111 J
b11111111 X
1f
b0 /
b0 p
b0 K
b0 ]
b1 H
b1 a
b1 G
b1 `
b0 A
b0 E
b0 R
b0 V
b0 \
b0 _
1k
b1 3
b0 (
b0 q
b0 x
b0 D
b0 t
b0 C
b0 v
1$
b1001111 ,
b1001111 i
1;
1>
b1 4
b1 #
b1 u
b1 1
b0 2
b111 *
b111 d
b1001111 .
b1001111 j
b1001111 m
b1110001 0
b1110001 |
b1001111 l
b1001111 &
b1001111 h
b1001111 '
b1001111 g
b1001110 5
b1001110 o
b1001110 {
1!
#140000
0!
#145000
b10 %
b10 y
b10 @
b10 Q
b10 c
b10 M
b10 T
b10 S
b1 L
b1 W
b0 F
b0 Z
b11111110 J
b11111110 X
0f
b1 /
b1 p
b1 K
b1 ]
b10 H
b10 a
b0 G
b0 `
b1 A
b1 E
b1 R
b1 V
b1 \
b1 _
0k
b0 3
b1 (
b1 q
b1 x
1$
0;
1>
b0 4
b0 #
b0 u
b0 1
0-
b1 *
b1 d
b1001111 .
b1001111 j
b1001111 m
b10000 0
b10000 |
b1 ,
b1 i
b1001111 l
b1001111 &
b1001111 h
b1010000 '
b1010000 g
b1001111 5
b1001111 o
b1001111 {
1!
